{
  "data": [{
    "id": 57,
    "recipe_id": 81,
    "name": "Kotlett med rostad potatis och piemento de padrons",
    "description": "En saftig kotlett ihop med rostad potatis och sm\u00e5 pimientos st\u00e5r p\u00e5 kv\u00e4llens meny! En s\u00e5dan h\u00e4r r\u00e4tt beh\u00f6ver inte s\u00e4ljas in mer, men f\u00f6r att toppa s\u00e5 serveras middagen ihop med en sm\u00e5het chilimajonn\u00e4s. Smaklig m\u00e5ltid!",
    "country": null,
    "type": "main_course",
    "allergic_type": "normal",
    "energy": 3157,
    "preparing_time": null,
    "cooking_time": null,
    "image": "https:\/\/icase.azureedge.net\/imagevaultfiles\/id_162991\/cf_259\/kotlett-med-pimiento-de-padrons-och-rostad-potatis.jpg"
  }, {
    "id": 58,
    "recipe_id": 82,
    "name": "Kyckling med tomatbakat ris i ugn",
    "description": "En m\u00e5ltid som sk\u00f6ter sig sj\u00e4lv i ugnen \u00e4r alltid uppskattad. Okokt ris h\u00e4lls i en ugnss\u00e4ker form innan skivade kycklingfil\u00e9er l\u00e4ggs p\u00e5 toppen. Som gr\u00e4dden p\u00e5 moset h\u00e4lls en f\u00e4rgstark och smakrik tomats\u00e5s \u00f6ver. Str\u00f6 lite riven ost \u00f6ver grat\u00e4ngen, och skjuts in i ugnen!",
    "country": null,
    "type": "main_course",
    "allergic_type": "glutenFree",
    "energy": 0,
    "preparing_time": null,
    "cooking_time": "UNDER 45 MIN",
    "image": "https:\/\/icase.azureedge.net\/imagevaultfiles\/id_195204\/cf_259\/kyckling-med-tomatbakat-ris-i-ugn-724998.jpg"
  }, {
    "id": 61,
    "recipe_id": 85,
    "name": "Gryta med krispigt rimmat fl\u00e4sk",
    "description": "Man kan n\u00e4stan aldrig f\u00e5 nog av grytor! I denna \u00e4r det rimmat stekfl\u00e4sk som har huvudrollen, och efter den stekts knaprig blandas den med gr\u00e4dde, stekt l\u00f6k och hackade mor\u00f6tter.",
    "country": "guyg",
    "type": "main_course",
    "allergic_type": "glutenFree",
    "energy": 0,
    "preparing_time": null,
    "cooking_time": "UNDER 30 MIN",
    "image": "https:\/\/icase.azureedge.net\/imagevaultfiles\/id_195212\/cf_259\/gryta-med-krispigt-rimmat-flask-724999.jpg"
  }, {
    "id": 62,
    "recipe_id": 86,
    "name": "\u00c4ggpizza",
    "description": "\u00c4ggpizzan kommer bli nya favoriten. F\u00f6rgr\u00e4dda botten som \u00e4r gjord p\u00e5 enbart \u00e4gg och ost i ugnen och gr\u00e4dda sedan med toppingen p\u00e5. Ett roligt, nytt s\u00e4tt att g\u00f6ra pizza. Och det blir riktigt gott!",
    "country": null,
    "type": "main_course",
    "allergic_type": "glutenFree",
    "energy": 4401,
    "preparing_time": null,
    "cooking_time": "UNDER 45 MIN",
    "image": "https:\/\/icase.azureedge.net\/imagevaultfiles\/id_163546\/cf_259\/breakfast-pizza-722303-liten.jpg"
  }, {
    "id": 63,
    "recipe_id": 87,
    "name": "Bl\u00e5b\u00e4rscheesecake med mynta",
    "description": "En vacker bl\u00e5b\u00e4rscheesecake med mynta d\u00e4r smakerna fullkomligt sm\u00e4lter i munnen.",
    "country": null,
    "type": "dessert",
    "allergic_type": "normal",
    "energy": 1756,
    "preparing_time": "\u00d6VER 60 MIN",
    "cooking_time": null,
    "image": "https:\/\/icase.azureedge.net\/imagevaultfiles\/id_159833\/cf_259\/cheesecake-med-citron-och-mynta-liten-721966.jpg"
  }, {
    "id": 64,
    "recipe_id": 88,
    "name": "Lax i ugn med basilika och tomat",
    "description": "Lax i ugn med basilika och tomat \u00e4r i grunden den k\u00e4ra klassikern d\u00e4r smakerna h\u00f6js till skyarna med hj\u00e4lp av kryddningen",
    "country": "Sweden",
    "type": "main_course",
    "allergic_type": "glutenFree",
    "energy": 1598,
    "preparing_time": null,
    "cooking_time": "UNDER 45 MIN",
    "image": "https:\/\/receptfavoriter.se\/sites\/default\/files\/lax_i_ugn_med_mozzarella_1060.jpg"
  }, {
    "id": 65,
    "recipe_id": 89,
    "name": "\u00c4delostsallad med gulbetor",
    "description": "Inneh\u00e5ller laktos och mj\u00f6lkprotein.",
    "country": "Turky",
    "type": "salad",
    "allergic_type": "vegetarian",
    "energy": 0,
    "preparing_time": "UNDER 30 MIN",
    "cooking_time": null,
    "image": "https:\/\/icase.azureedge.net\/imagevaultfiles\/id_178331\/cf_259\/crudite-er-med-lo-jromsdipp-723540-liten.jpg"
  }, {
    "id": 66,
    "recipe_id": 90,
    "name": "Fiskgryta med kokosmj\u00f6lk och broccoli",
    "description": "Denna fiskgryta g\u00f6mmer smaker som ingef\u00e4ra, vitl\u00f6k och sambal oelek! H\u00e4rliga kryddor f\u00e5r stekas i stekpannan f\u00f6r att smakerna ska komma till sin r\u00e4tt, och fisken g\u00f6r dem sedan s\u00e4llskap tillsammans med kokosmj\u00f6lken.",
    "country": "Sweden",
    "type": "starter",
    "allergic_type": "lactoseFree",
    "energy": 2552,
    "preparing_time": null,
    "cooking_time": "UNDER 45 MIN",
    "image": "https:\/\/icase.azureedge.net\/imagevaultfiles\/id_195196\/cf_259\/fiskgryta-med-kokosmjolk-och-broccoli-724997.jpg"
  }, {
    "id": 67,
    "recipe_id": 91,
    "name": "Kotlett med rostad potatis och piemento de padrons",
    "description": "En saftig kotlett ihop med rostad potatis och sm\u00e5 pimientos st\u00e5r p\u00e5 kv\u00e4llens meny! En s\u00e5dan h\u00e4r r\u00e4tt beh\u00f6ver inte s\u00e4ljas in mer, men f\u00f6r att toppa s\u00e5 serveras middagen ihop med en sm\u00e5het chilimajonn\u00e4s.",
    "country": null,
    "type": "starter",
    "allergic_type": "normal",
    "energy": 3157,
    "preparing_time": null,
    "cooking_time": "UNDER 45 MIN",
    "image": "https:\/\/icase.azureedge.net\/imagevaultfiles\/id_162991\/cf_259\/kotlett-med-pimiento-de-padrons-och-rostad-potatis.jpg"
  }, {
    "id": 68,
    "recipe_id": 92,
    "name": "Veganska p\u00e5sk\u00e4gg med choklad",
    "description": "Sm\u00e5 fina p\u00e5sk\u00e4gg som g\u00e5r att dekorera efter sin egen fantasi, anv\u00e4nd olika sorters choklad och doppa i kokos, hackade n\u00f6tter eller frystorkade hallon.",
    "country": null,
    "type": "dessert",
    "allergic_type": "vegan",
    "energy": 199,
    "preparing_time": "UNDER 60 MIN",
    "cooking_time": null,
    "image": "https:\/\/icase.azureedge.net\/imagevaultfiles\/id_177961\/cf_259\/veganska_paskagg-med-choklad_723513.jpg"
  }, {
    "id": 69,
    "recipe_id": 93,
    "name": "Falafelbowl med hummus",
    "description": "Beh\u00f6ver du en enkel, fr\u00e4sch och snabb vardagsmiddag? Laga falafelbowl! Med fryst falafel g\u00e5r det p\u00e5 mindre \u00e4n en kvart att laga middagen.",
    "country": null,
    "type": "main_course",
    "allergic_type": "vegan",
    "energy": 2731,
    "preparing_time": "UNDER 15 MIN",
    "cooking_time": null,
    "image": "https:\/\/icase.azureedge.net\/imagevaultfiles\/id_194372\/cf_259\/falafelbowl-med-hummus-725213-liten.jpg"
  }, {
    "id": 70,
    "recipe_id": 94,
    "name": "Linscurry med risnudlar",
    "description": "Linser b\u00e5de m\u00e4ttar bra och \u00e4r goda. H\u00e4r anv\u00e4nder du dem i en kr\u00e4mig linscurry med h\u00e4rliga smaker fr\u00e5n ingef\u00e4ra, l\u00f6k och mor\u00f6tter.",
    "country": null,
    "type": "main_course",
    "allergic_type": "vegetarian",
    "energy": 2892,
    "preparing_time": "UNDER 45 MIN",
    "cooking_time": null,
    "image": "https:\/\/icase.azureedge.net\/imagevaultfiles\/id_194212\/cf_259\/linscurry-i-kokosmjolk-724854.jpg"
  }, {
    "id": 71,
    "recipe_id": 95,
    "name": "Lax- och sparrissallad med krispig spenat- och \u00e4ggpaj",
    "description": "Kan det bli mer v\u00e5r \u00e4n s\u00e5 h\u00e4r? I den h\u00e4r middagen ryms flera av v\u00e5rens mest typiska ingredienser; \u00e4gg, lax och spenat i en vacker symfoni.",
    "country": "USA",
    "type": "snack",
    "allergic_type": "lactoseFree",
    "energy": 2107,
    "preparing_time": null,
    "cooking_time": "UNDER 45 MIN",
    "image": "https:\/\/icase.azureedge.net\/imagevaultfiles\/id_63212\/cf_259\/lax-_och_sparrissallad_med_krispig_spenat-_och_-gg.jpg"
  }, {
    "id": 72,
    "recipe_id": 96,
    "name": "Tonfisks\u00e5s med tagliatelle",
    "description": "Visst uppskattar vi alltid en snabb pastar\u00e4tt? Denna \u00e4r dessutom supergod, vilket g\u00f6r det \u00e4nnu b\u00e4ttre.",
    "country": null,
    "type": "main_course",
    "allergic_type": "lactoseFree",
    "energy": 2711,
    "preparing_time": "UNDER 30 MIN",
    "cooking_time": null,
    "image": "https:\/\/icase.azureedge.net\/imagevaultfiles\/id_195345\/cf_259\/tonfisksas-med-tagliatelle-725008.jpg"
  }, {
    "id": 73,
    "recipe_id": 97,
    "name": "Citronfromage",
    "description": "En fr\u00e4sch citronfromage passar utm\u00e4rkt som avslutning p\u00e5 en festm\u00e5ltid. Perfekt att f\u00f6rbereda dagen innan, l\u00e5ta st\u00e5 i kylen och garnera f\u00f6re servering. Ljuvligt gott!",
    "country": "AFRICA!",
    "type": "starter",
    "allergic_type": "normal",
    "energy": 921,
    "preparing_time": "\u00d6VER 60 MIN",
    "cooking_time": null,
    "image": "https:\/\/cdn1.tasteline.com\/citronfromage_3-360x360.jpg"
  }],
  "links": {
    "first": "http:\/\/recipe\/api\/meals?page=1",
    "last": "http:\/\/recipe\/api\/meals?page=2",
    "prev": null,
    "next": "http:\/\/recipe\/api\/meals?page=2"
  },
  "meta": {
    "current_page": 1,
    "from": 1,
    "last_page": 2,
    "path": "http:\/\/recipe\/api\/meals",
    "per_page": 15,
    "to": 15,
    "total": 17
  }
}
